R,1,"Is it an organism?"
Y,1,11,"Is it tough?"
Y,11,111,"Is it really really tough?"
Y,111,1111,"Is it space tough?"
Y,1111,11111,"Answer: Tardigrade!!!"
N,1111,11112,"Answer: E. Coli"
N,111,1112,"Is it in minecraft?"
Y,1112,11121,"Answer: Mountain Goat!"
N,1112,11122,"Answer: Honey Badger!"
N,11,112,"Does it have a 'head cracking' rear?"
Y,112,1121,"Answer: Wombat!"
N,112,1122,"Answer: Armadillo!"
N,1,12,"Is it a technical device?"
Y,12,121,"Does it eat people?"
Y,121,1211,"Does it have more than one finger?"
Y,1211,12111,"Answer: an Iron Maiden"
N,1211,12112,"Answer: A catapult"
N,121,1212,"Was it used by the spartans?"
Y,1212,12121,"Answer: their spears"
N,1212,121212,"Answer: bacon"
N,12,131,"Is it used for 'entertainment' purposes?"
Y,131,11,"Answer: Its a phone! Haha! got cha"
N,131,1312,"WWZ?"
Y,1312,13121,"I kinda am super tired by this point and forgot what im doing?"
Y,13121,11,"Answer: I lied"
N,13121,12,"Answer: Or did i?"
N,1312,13122,"Will this End?"
Y,13122,1413123,"Answer: Ok"
N,13122,1413122,"Answer: Hehe"
